{
  "lang" : "zxx",
  "name" : "customer360entity-mapCustomer",
  "description" : "",
  "version" : 0,
  "targetEntityType" : "http://example.org/Customer360-0.0.1/Customer360",
  "sourceContext" : "/",
  "sourceURI" : "/customer360/customer/ffea410a-8350-46b5-853b-e115546ff947.json",
  "properties" : {
    "firstName" : {
      "sourcedFrom" : "firstName"
    },
    "productID" : {
      "sourcedFrom" : ""
    },
    "surName" : {
      "sourcedFrom" : "surName"
    },
    "orderId" : {
      "sourcedFrom" : ""
    },
    "id" : {
      "sourcedFrom" : "Customer_ID"
    },
    "orderDate" : {
      "sourcedFrom" : ""
    }
  },
  "namespaces" : { }
}