{
  "name" : "ingestPeople",
  "description" : "",
  "batchSize" : 100,
  "threadCount" : 4,
  "stopOnError" : false,
  "options" : { },
  "version" : 0,
  "steps" : {
    "1" : {
      "name" : "ingestPerson",
      "description" : "",
      "options" : {
        "additionalCollections" : [ "customer" ],
        "headers" : {
          "sources" : [ {
            "name" : "ingestPeople"
          } ],
          "createdOn" : "currentDateTime",
          "createdBy" : "currentUser"
        },
        "sourceQuery" : "cts.collectionQuery([])",
        "targetEntity" : "",
        "collections" : [ "ingestPerson", "customer" ],
        "sourceDatabase" : "",
        "permissions" : "data-hub-operator,read,data-hub-operator,update",
        "outputFormat" : "json",
        "sourceCollection" : "",
        "targetDatabase" : "data-hub-STAGING"
      },
      "customHook" : {
        "module" : "",
        "parameters" : { },
        "user" : "",
        "runBefore" : false
      },
      "retryLimit" : null,
      "batchSize" : 100,
      "threadCount" : 4,
      "stepDefinitionName" : "default-ingestion",
      "stepDefinitionType" : "INGESTION",
      "fileLocations" : {
        "inputFilePath" : "C:\\Development\\MarkLogic\\datahub\\srcdata\\customerList",
        "inputFileType" : "csv",
        "outputURIReplacement" : "^.*,'/customer360/customer'",
        "separator" : ","
      }
    }
  }
}